Sleep Analysis
…
    intersect, setdiff, setequal, union

library(tidyr)

Rows: 374 Columns: 13

── Column specification ────────────────────────────────────────────────────────
Delimiter: ","
chr (5): Gender, Occupation, BMICategory, BloodPressure, SleepDisorder
dbl (8): PersonID, Age, SleepDuration, QualityofSleep, PhysicalActivityLevel...

ℹ Use `spec()` to retrieve the full column specification for this data.
ℹ Specify the column types or set `show_col_types = FALSE` to quiet this message.

# A tibble: 374 × 13
   PersonID Gender   Age Occupation           SleepDuration QualityofSleep
      <dbl> <chr>  <dbl> <chr>                        <dbl>          <dbl>
 1        1 Male      27 Software Engineer              6.1              6
 2        2 Male      28 Doctor                         6.2              6
 3        3 Male      28 Doctor                         6.2              6
 4        4 Male      28 Sales Representative           5.9              4
 5        5 Male      28 Sales Representative           5.9              4
 6        6 Male      28 Software Engineer              5.9              4
 7        7 Male      29 Teacher                        6.3              6
 8        8 Male      29 Doctor                         7.8              7
 9        9 Male      29 Doctor                         7.8              7
10       10 Male      29 Doctor                         7.8              7
# ℹ 364 more rows
# ℹ 7 more variables: PhysicalActivityLevel <dbl>, StressLevel <dbl>,
#   BMICategory <chr>, BloodPressure <chr>, HeartRate <dbl>, DailySteps <dbl>,
#   SleepDisorder <chr>
…
